aa
aaaa
Aare
AAre
AARE
AAREa
a'b
abab
ABDATA
aboutthismanual
ABSOlute
acCD
ACCU
ACCUracy
aCD
acetonitrile
Acetonitrile
ACETONITRILE
ack
ACML
ACN
ACPF
acrol
acrolein
Acrolein
ACTIve
aCXC
ADAP
ADAPtation
ADDRessing
ae
AE
AFRE
AFREeze
ag
AGRID
Ahlrichs
aHOH
aHXH
ai
AIMP
AIMPLIB
aimps
AIMPs
AIMP's
AIVX
AixRd
Ak
akvavit
al
alaska
aldehydes
aldehydic
ALGRT
Almlof
AlmlofFaegriKorsell
ALOOp
ALPHa
Alphae
alphak
ALTEr
ALTErn
ALTERN
Amfi
AMFI
Ampr
AMPR
AMProd
ana
analyse
Andersson
Andr
ang
Angm
ANGM
AngMom
anharmonic
anharmonics
aniso
ANISO
ano
Ano
ANO
anoI
anoII
anoIII
anoIV
ANOs
ANO's
antibonding
antisymmetrically
ANYTRIP
ao
AO
aog
aOOH
AO's
aou
Aquilante
arcsin
artefacts
ascii
Ascii
ASYM
ASYMptotic
atm
atomN
ATOMs
ATQR
AttractS
atvx
ATVX
au
aufbau
Aufbau
AUFBau
aug
AUGHESS
autogenerated
AUXLIB
AUXRFIL
AUXS
AUXShow
AUXSHOW
avbt
AVERage
AVERaged
awk
backend
backmatter
BAKEr
bandwdith
Barandiaran
Barysz
basename
BASIs
basistype
BASLIB
bb
bbbb
bc
Becke
BECKE
Becke's
behaviour
benzoquinone
Bernhardsson
Betae
BFGS
bg
BH
bibliographystyle
Bickelhaupt
Biggl
bigskip
Bingbing
biorthonormal
biphenyl
Biphenyl
biradical
bj
BJAIM
BJAIP
BJATM
BJATP
blackbox
blas
BLAS
BLOCKGROUP
Blom
BLoop
BLOOp
BLYP
bmargin
bo
Bofill
bOH
bohr
Bohrs
Boltz
bOO
bookletfalse
booklettrue
bou
BOXGROUP
bp
BP
BPBE
BPupdate
BPUPdate
BPUPDATE
BroadPlot
BROAdplot
Broyden
bsse
BSSE
BSSH
BSSHow
BSSHOW
BSSmethod
BSSMethod
BSuo
bt
btg
bttg
bttu
btu
bubroutine
BUFFersize
butadiene
Butadiene
Butylchloride
bvat
BVAT
BVATM
BVATP
BWig
calc
CANOnical
carbanion
carbene
carbenoid
carbontetrachloride
CARBONTETRACHLORIDE
carrys
cartesian
CARTesian
Cartesians
CAS
Casarrubios
caspek
CASProj
CASPROJ
caspt
Caspt
CasPT
CASPT
Casscf
CASSCF
casvb
Casvb
CASVB
cav
cavitation
Cayley
ccc
cccc
cccccccc
CCD
cclc
ccsd
CCSD
ccsdt
Ccsdt
CCSDT
ccsort
CCSORT
cct
CCT
cd
cdot
cdots
CDTH
CDThreshold
CDTHreshold
CENTer
centre
Ceperley
Cerius
CeriusTwo
cfg
CFSs
CGTO
CGTOs
CHARge
Charmm
chcc
Chcc
CHCC
CHECk
CHECKBOX
Chibotaru
Chim
Chirgwin
CHIRGWIN
CHKAll
CHKMinimum
CHKSpecified
chlorobenzene
CHLOROBENZENE
chloroethanol
CHO
ChoAlgorithm
CHOAlgorithm
CHOAlGORITHM
CHODIAG
CHOI
Choinput
ChoInput
CHOInput
CHOINPUT
CHOL
cholesky
Cholesky
CHOLesky
CHOLESKY
CHOMAP
CHOMax
Chong
CHOR
CHORST
CHOS
CHOStart
CHRED
CHSEgment
CHSEgmentation
cht
Cht
CHT
CHVEC
ci
Ciall
CiAll
CIall
CIAll
CIALl
CIALL
CIGUGA
ciiscmng
CIISCmng
CIISCMNG
CIMX
cinfv
Cinfv
CIONly
CIONLY
CIOP
CIOPtimization
CiOrb
CIORB
CIORBnn
CIPR
CIPrint
CIPRint
circ
CIREstart
CIRESTART
ciroot
CiRoot
CIroot
CIRoot
CIROot
CIROOT
cis
CIs
CIVECT
CIWEights
CIWEIGHTS
CLEAnup
clearpage
cline
CMO
CMOcorr
CN
CNO
Cns
CNVCTL
Coef
coeff
Coeff
coeffs
COEFFS
COMBOBOX
ComFile
COMFILE
commandlist
COMOLD
COMPACR
COMPact
COMPMOD
Condon
CONDuctor
conf
Conf
config
Config
configurational
Configurational
CONStraints
contr
CONV
CONVentional
CONvergence
CONVergence
convergency
coord
Coord
COORD
CoreRep
COREREP
Cortona
coset
Cossi
Coulson
COUPle
Cowan
cp
cpf
Cpf
CPF
CPFORB
CPFVECT
Cproperty
CPROperty
CPROPERTY
CremerGauss
CRIT
criterions
CROWding
CsCaF
CSEL
CSF
CSFs
Csonka
CTOF
Ctrl
Ctv
CtwoDir
CUBIc
cuda
CUDA
CuH
CUMU
CUMUlative
CurrDir
curvlinear
CUTOff
CX
CXC
cyclohexane
Cyclohexane
CYCLOHEXANE
cyclope
cyclopentadiene
Cyclopentadiene
Cygwin
da
dag
dampings
dat
DBAS
dcf
DCR
DCUBLAS
dd
dDH
DDVV
de
dE
DECOmpose
decontracted
decontraction
deexcitation
Dele
DELE
DELEte
DELEted
delocalization
delocalized
DELOPT
DELStruc
DELSTRUC
DELT
DELTa
DeltaG
DeltaS
DENO
DEnominators
DENOminators
DENSe
DENSity
dep
der
DESORB
DESY
desymmetrization
desymmetrize
Desymmetrize
DESYmmetrize
desymmetrized
dev
Devarajan
DF
dFletch
DFLETCH
dFMD
dft
DFT
DFTgeometry
dH
diabatic
DIACheck
diagonalization
dichloroethane
DICHLOROETHANE
DIELectric
DifC
DifCH
diff
DifH
DifXCH
diis
Diis
DIis
DIIS
DIISthr
dimethylaminobenzonitrile
dimethylcarbene
Dimethylcarbene
dimethylsulfoxide
DIMETHYLSULFOXIDE
dinfh
Dinfh
DIPO
dipol
DIPOle
DIPOles
DIPrescreening
dir
diradicaloid
diradicals
DIREct
DirSCF
DISO
DISOtope
DISOTOPE
Disp
displaymath
Dissoc
DK
DKH
DltNTh
dmabn
DMABN
Dmc
DMP
dmpK
DMPK
DMS
documentclass
DOF
Dolg
DOlg
DOLG
DOMA
DOMAin
DoMP
DOPrescreening
DOUGlas
dp
DPAORB
DPZ
dr
DRT
DSHD
DSP
DT
Dth
DThr
DTime
DV
dw
dx
dxdx
DXDX
dxg
DXG
dxtyt
dxy
dxz
dy
dynamix
Dynamix
DYNAMIX
dyz
DZP
dzt
EBO
EConvergence
ECONvergence
ecp
ECP
ECPs
ECP's
ECPS
ECPShow
ECPSHOW
Ediff
EDMI
Edmiston
EDMIston
EF
eff
EFGR
EFLD
eigen
eigenbasis
EIGV
Ejob
EJob
EJOB
elec
ELECtrons
ElectroStatic
elpasolites
EMB
emil
EMP
emph
EMSL
ENCU
endable
ENDALTErn
ENDALTERN
ENDChoinput
enddo
Enddo
EndDo
ENDDO
endfoot
ENDGUESs
endhead
endif
EndIf
ENDIF
EndOfInput
ENDOPTIm
ENDOPTIM
ENDORTHcon
ENDREPOrt
ENDREPORT
EndSeward
ENDSYMElm
ENDVB
ENDVERBATIM
Ene
enediyne
Enediyne
Ener
ENERgies
EneRGY
enumi
env
ENV
EPOT
EPR
EPRg
EPRG
eps
eq
eqn
eqnarray
eqs
Eqs
EQUIvalence
eRange
ERange
ERANge
ERANGE
EREF
Ernzerhof
errorcode
espf
Espf
ESPF
ESPFINP
essl
esum
EThr
ethylenic
ethylether
ETHYLETHER
eu
ev
eV
eval
Eval
EVAL
Evb
everpresent
examplei
exothermicity
Exothermicity
EXPA
EXPAnsion
expbas
Expbas
ExpBas
EXPBAS
EXPD
EXPDimension
EXPE
EXPErt
ExpOrb
EXPORB
Expt
EXTR
EXTRapolation
favourite
fbox
fc
FC
FCO
Fconstant
FCONstant
FCONSTANT
FCW
FeNi
fermi
FERMi
Ferr
Ferre
ffpt
FFPT
fi
fil
filelist
FILELOAD
FILEorb
FILEORB
filesize
findsym
FindTS
FINDTS
FINIte
FIRSt
FirstOrbital
FischerAlmloef
FIXE
FIXEd
FIXOrb
FIXORB
FIXStruc
FIXSTRUC
Fld
FLDG
flippings
fluoro
fn
FNO
FNOC
FNOCaspt
FNOM
FNOMp
Fock
Focktype
FOCKtype
FOCKTYPE
followd
footnotesize
FORCe
ForceConstant
ForceField
foreach
Foreach
FOREACH
formamide
formulae
Forsberg
fortran
frac
FRACtion
FREEINPUT
freeware
FREEze
frontmatter
FROZen
fs
FTHA
FTHAw
FThr
FTxxF
Fuelscher
FWC
fx
fxdbuf
fxtt
fxyz
fy
fytt
fz
fztt
ga
Gaenko
Gagliardi
Gammae
GAOPTIONS
GapThr
GAPThr
gauged
gaussian
Gaussians
GBytes
gcc
Gdanitz
gdiis
GDIIS
gdx
GDX
ge
genano
Genano
GENANO
geo
GEOMetry
geomview
GEPOL
geq
gerade
Gerratt
getpatch
gfortran
gg
GG
GGA
GGL
Ghigo
GillWig
GLBL
GLOBal
glui
GLUI
GLYP
GNRM
gnumake
GnuMakeWWW
GnuWWW
Goldfarb
GotoBLAS
Graaf
GRADient
grep
greyscale
gridit
Grimme's
GROUp
GSSORB
GssRunfile
GSSRunfile
GSSRUNFILE
GTFs
GTF's
GTO
gua
GUESs
guessorb
Guessorb
GuessOrb
GUESSORB
guga
Guga
GUGA
gugaci
GUGACI
gugadrt
Gugadrt
GugaDrt
GUGADRT
gunzip
gurka
gurkbox
gv
Gv
GV
GValue
GVALue
GVALUE
GvOrb
gz
HaeserAhlrichs
Hagberg
halfwidth
hamiltonian
Hartee
hartree
Hartree
HAt
hbox
hbt
HDiag
HDIAg
HDIAG
HEff
HEFF
Helgaker
hermitized
Herzberg
hessian
HESSian
hessians
heteronuclear
HEULLY
hexa
hexadecapole
HEXP
HExt
HEXT
HFB
hfill
HFO
Hfrctfld
HFrctfld
HFRctFld
HFRCtfld
HFS
hfxyy
Hij
Hji
HLgap
HLGAp
hline
HMF
HOH
Hohenberg
HomeDir
homonuclear
HotKeys
HOWCHOOSE
hrule
hspace
hsym
htbp
html
htp
HU
HUGElog
Huzinaga
HW
hwrs
HWRS
HXH
Hybr
Hylleraas
hyperspherical
hypersurface
hypersurfaces
HZer
HZER
HZERo
HZERO
ia
IALL
iAng
IC
ICOMP
iContr
iElem
ies
ifbooklet
IFCSeward
IFGOTO
ifmanual
ifprintauthor
if's
ig
ign
IIa
ij
IMAG
IMAGinary
imido
impi
INACtive
includegraphics
INCR
indexspace
indices
INDICES
INFInite
infty
init
INIT
initio
Initio
inline
Inline
INO
inp
InpDir
INPLACE
inploc
Inporb
InpOrb
INPORB
inpscf
inputfile
inputlisting
intel
interatomic
INTErnal
intersystem
INTS
INTTABLE
INTTEXT
IOKEy
IOKEY
IOVEctor
iovedefault
IPAORB
IPEA
IPEAshift
IPHN
IphName
IPHName
IPHNAME
IPHNames
IPR
iprec
IPRGLB
iPrim
IPRSEC
irc
iRc
IRC
IRCStep
IROOT
irrep
irreps
Irreps
IRREPS
ISC
ISCO
ISCOptimization
isogyric
isolevel
isomerization
isooctane
isoquinoline
ISOQUINOLINE
isosurface
isosurfaces
isovalue
itemsep
iter
Iter
ITER
ITERation
ITERations
ivo
Ivo
IVO
IW
iwidth
IXSYM
iy
iz
Jarek
JCP
ji
JK
JMAX
jobiph
Jobiph
JobIph
JOBIph
JOBIPH
JOBIPHnn
jobiphs
JobIphs
JOBIPHs
JOBIPHS
JobMix
JOBMIX
JOBnnn
JobOld
JOBOLD
joe
JOINlkey
JOPR
Karlstr
Karlstroem
Kaufmann
kbyte
kByte
Keal
ketones
keyfont
keywordlist
KHAC
ki
Kirkwoord
Kleinman
KMATAA
KMATBA
KMgF
Kmol
kno
Kohn
Koopmanns
KOPR
Korn
Kotani
KOTANI
Kramers
Krogh
kroll
Kroll
ksdft
KSDFt
KSDFT
ksh
kT
k'th
Kuechle
Labatto
LABATTO
LAMO
LAMorokuma
lAng
Langevin
langle
LAngle
LANL
LANLDZ
lantanide
Lanthanides
lapack
LAPACK
LARGe
LastOrbital
latexonly
lblas
lcc
lccc
lcccc
lccccc
lcccccc
lccccccc
lccccccccc
lcccccccccc
lccrrrrlll
lccrrrrlllr
LCOs
LDA
ldots
ldtf
LDTF
leavevmode
Lebedev
LEBEdev
LEBEDEV
LenBuf
leq
Lett
levelshift
Levelshift
Levshft
LevShft
LEVShft
LEVSHFT
LevShift
LEVShift
LEVSHIFT
libary
LifeTime
LIFEtime
liftdegeneracy
LIFTDEGENERACY
Lindh
LINEar
linux
listoffigures
listoftables
LK
ller
lll
llllllll
lmargin
LMATAA
LMATBA
lMax
LMax
LMAX
LMG
ln
LNOs
Lobatto
LOBAtto
LOC
localisation
Localisation
LOCALISATION
localisations
localise
Localise
localised
localising
LOCC
LOCCanonical
LOCN
LOCNatural
LOCORB
logfile
LOGNAME
Lond
longtable
loprop
Loprop
LoProp
LOPROP
LOVC
LovCASPT
LOVCaspt
LOVM
LovMP
LOVMp
LOWDIN
LOWM
LOWMemory
LOWSPIN
Lpath
lr
lrgbuf
lring
Lroot
LRoot
LROOt
LROOT
LROOTS
LSDA
LTRUMER
LUHALF
LUHLFn
lumo
LUMO
lumorb
Lumorb
LumOrb
LUMOrb
LUMORB
LUNARC
lyp
LYP
machinefile
MACHinetyp
MacOS
mact
MAGN
mainmatter
makeindex
maketitle
Malmqvist
manualfalse
manualtrue
MassVel
Matzinger
MAVE
maxima
Maxit
maxiter
MaxIter
MAXIter
MAXITER
Maxiterations
MaxIterations
MAXIterations
MAXOrb
MAXORB
MAXORDER
MaxPulay
MAXPulay
MAXPULAY
MAXQualified
Maxstep
MAXStep
MAXSTEP
mbox
mbpt
Mbpt
MBPT
Mbyte
MByte
MCKINELY
mckinley
MckInley
MCKINT
MCKINTn
mclr
MCLR
MCPF
MCSCF
MCSCRF
MCW
McWeeny
md
MDF
MDRL
MDRLXR
MDRLxroot
mdseries
MECIs
MECP
MEDI
MEDIum
MEES
MEIN
MEMFraction
mep
MEP
MEPs
Merchan
mesitylene
MESO
METHod
methylenchloride
METHYLENECHLORIDE
MEYEr
Mezey
MFIELD
mfrf
MFRFS
MGauss
MGAUSsian
MGAUSSIAN
MHKEy
MHL
microiterations
MIDPoint
Miehlich
MIn
minima
Minima
MINQualified
mixings
mkdir
mkl
MKL
MLDNFQ
MLTP
Mltpl
MltPl
MLTPL
MltplS
mmetrize
Mocas
MODEs
Moeller
mol
Mol
molcas
Molcas
MOLCas
MOLCAS
molcasauthor
MOLCASDISK
molcasgv
molcashome
molcasiii
molcasiv
MOLCASMEM
MOLCASRAMD
molcasrc
MolcasRoot
MolcasRootUp
molcas's
molcasthis
molcasv
molcasversion
molcasversionnodots
molcasvi
molcasvii
MolcasWWW
molden
Molden
MOLDEN
MOLEcule
MolGUI
MOLINT
MolOrb
MOLOrb
MOLPro
MOLPRO
MOLSIM
Mopac
Moraza
Morokuma's
MOs
MO's
Mossoti
motra
Motra
MOTRA
MOVIng
mpd
MPI
mpicc
mpich
MPICH
mpiexec
mpif
mpirun
MPPR
MpProp
MPPRop
MPT
Mq
mrci
MRCI
MRCISD
MRCIVEC
MRCIVECT
mscaspt
MSCASPT
MSI
MSP
mula
Mula
MULA
Mulliken
Mulliken's
MULT
multicenter
multiconfigurational
Multiconfigurational
multifile
MULTILINESTRING
multipolar
multipole
Multipole
MULTipole
MULTIPOLE
MultipoleOrder
multipoles
Multipoles
MULTipoles
multireference
Multireference
multistate
Multistate
MultiState
MULTistate
MULTISTATE
multiview
Mura
Murtagh
mv
MVEC
MWB
MXLE
MxLevels
MXLEvels
MXOR
MXORder
MXORDER
MxQual
MXQUal
MXSHell
MXSUbtraction
MxVectors
MXVEctors
MyMolecule
nabla
NACM
NACMe
NACMEs
nacnac
Nact
nactel
nActEl
Nactel
NactEl
NACTel
NACTEL
NAIVe
namelist
NAMEPID
nano
NANO
NANOmeters
naphtalene
NATnnn
NatOrb
NATOrb
NATORB
NATUral
NBO
nCenters
nContr
nd
NDDO
NDIR
NDSD
ne
nElem
NEMO
neo
Neogr
Neogrady
newbox
NEWI
newif
NewIph
NEWIph
NewLib
NEWTon
NFIELD
nFrag
NFRO
NFROzen
NFROZEN
NGRI
nGrid
NGRId
nGroup
ngstr
nH
ni
Nieplocha
nih
NiH
nIRC
nIrrep
nitromethane
NITROMETHANE
NK
nMEP
NMEP
NMULT
nn
NN
nnnn
NNNN
nnnnn
nnn'th
NOABsolute
noalign
NOAMfi
NOAMFI
NOCASPROJ
nocite
NOCOre
NOCORE
NoCorr
NOCOrr
NOCORR
NoDAMP
NODAmp
NODAMP
Nodecompose
NODEcompose
NODEcomposition
NODEFILE
nodeless
NODElete
NoDensity
NODEnsity
NODENSITY
NoDIIS
NODIis
NODIIS
NODIstribute
NoDK
NODK
NODKroll
NOEX
NOEXpand
NOFI
NoField
NOFIeld
NOGEnerate
NOGUessorb
NOGUESSORB
NoHWRS
NOHWrs
NOHWRS
noindent
NOINIT
NOINvariance
Noline
NOLIne
NOLINE
NoLK
NOLK
Nomaxstep
NOMAxstep
NOMAXSTEP
NoMCLR
NOMClr
nominimization
NOMInimization
NoMix
NOMIx
NOMIX
NoMOVE
NOMOVE
NOMUlt
NOMULTI
NoMultistate
nonadapted
nonadiabatic
nonbonding
NONEequilibrium
NonEq
NONEQ
NonEquilibrium
NONEquilibrium
NONEQUILIBRIUM
nongeometrical
NONINTERACT
NonInteracting
NONInteracting
noniterative
NONLinear
nonorthonormal
nonredundant
nonrelativistic
nonsignificant
NoOrbitals
NOORbitals
NOORBITALS
NOPA
Nopack
NoPack
NOPAck
NOPACK
NoPair
NOPR
NOPRescreen
NOPRop
NOPROP
NoProperties
Noprunning
NOPRunning
NOQUne
NOQUNE
NORB
Norbeck
NORBitals
nOrd
Nord
nOrder
normalsize
NOs
NO's
NOSC
NOSCORR
NOSCreen
NoScreening
NOSCreening
NoSort
NOSORT
NOSP
NOSPectroscopic
nosym
Nosym
NoSym
NOSYM
NOSYMPROJ
NOTAbles
NOTHing
nothreshold
NOTHRESHOLD
NOTIMPLEMENTED
NoTransform
NOTRansform
NOTRANSFORM
NOTRiangular
NOTRiples
Noupdate
NOUPdate
NOUPDATE
np
NPh
npi
nPoints
Npoints
NPOInts
NPOINTS
nPrim
NPROP
nr
nR
Nr
NR
nrc
nRead
nric
Nrof
NrOf
NROF
NROFjob
NrofJobIph
NROFjobiph
Nrofjobiphs
NrOfJobiphs
NROOTS
Nrroots
NRRoots
NRROots
NRROOTS
ns
NSEL
nSets
nsigma
NSYM
nT
n'th
nullspace
num
NUM
NUmerical
NUMErical
Numerov's
Nusair
NVB
nVIDIA
nXF
OBSE
OBSErvable
occ
Occ
OCC
OCCNO
OCCNumber
Occnumbers
OccNumbers
OCCNumbers
OCCU
occup
OCCUpied
OCTU
octupole
odinger
OFE
OFEM
OFEMbedding
ok
Oldforce
OldForce
OLDForce
OLDFORCE
OldProject
OLYP
OMEGa
OMM
ompi
OMPI
OneGrid
ONEGrid
ONEGRID
OneHam
OneInt
ONEINT
Onel
ONEL
ONEnnn
ONEO
OneOcc
ONEOcc
ONEOCC
oneonly
Oneonly
OneOnly
ONEOnly
ONEONLY
ONEStep
ONESTEP
ONSCREEN
ONTHefly
OPBE
openGL
OpenGL
OpenMP
oper
Oplus
optim
OPTIm
OPTIM
optimiza
OPTImized
OPTX
oRange
ORange
ORANge
ORBAppear
ORBC
Orbcon
OrbCon
ORBCon
ORBI
ORBItal
ORBItals
ORBListing
ORBLISTING
ORBOnly
ORBONLY
ORBPerm
ORBPERM
ORBRel
ORBREL
OrbRot
ORBSTART
ORDE
ORDEr
OrdInt
ORDINT
Organising
orientational
ORTH
ORTHcon
ORTHCON
ortho
orthogonalizations
orthogonalize
OscStr
OSCStr
OutOfP
OUTOFPL
OutOrbital
OUTOrbital
OutOrbitals
OUTOrbitals
OUTORBITALS
OUTPut
OutputDir
OVERlaps
overpolarization
Ovldelete
OVLDelete
PageDown
pageref
PageUp
pand
PAO
PAOs
parainst
PARAllel
paralleltest
PARALLELTEST
Paramenters
parametrizing
partitionings
Pascual
patchlevel
PAULing
pb
pbe
PBE
PBEsol
PbO
pbtutorials
PCG
PCM
PDF
Pedersen
Pelissier
Perdew
Peric
permutational
perovskite
perovskites
perp
PERTurbation
perturbational
perturbative
perturbatively
Perturbatively
PES
phonons
photophysical
photophysics
Pierloot
Pipek
PIPEk
pipi
pisigma
Pitonak
Piu
PKTH
Pkthre
PKTHre
PkThrs
Plesset
PlotWindow
plugin
PLYP
PMCASSCF
PNAME
PNEW
PNT
pointwise
polarisabilities
polarisability
polarising
polarizabilities
Polarizabilities
polarizability
polarizable
Polarizable
polarizablilites
POLD
polI
polII
polIII
polIV
polV
polVI
polVII
poly
POLY
POLYnomial
Ponec
POPUP
porph
porphin
Porphin
porphirin
Porphyrine
PostScript
POTE
POTEntial
Pou
povray
PPC
pqrs
pre
Pre
PRE
prebuild
prebuilt
PREC
Precalculate
PRECalculate
precalculated
precalculation
Precompiled
PREScreen
prescreening
Prescreening
PRESort
PREThreshold
PRFC
prgm
PRGM
prgmfont
PRINt
printauthorfalse
PRINtkey
printlevel
Printlevel
PrintLevel
PRINtlevel
PrjInt
PRLInt
prlscf
PRLScf
PRLV
PRMO
Proc
programlist
progs
proj
PROJ
ProjectName
PROJOP
propene
Propene
PROPerty
PROPT
PROR
Prorbitals
PrOrbitals
PRORbitals
PRORBITALS
PrPopulation
PRPOpulation
PRSP
PRT
PRWF
ps
PSEU
pseudocanonical
pseudocharge
PSEUdocharge
PseudoCholesky
pseudonatural
pseudopotential
Pseudopotentials
pseudospin
PTCA
Pulay
pVDZ
pVXZ
pwd
PWD
px
py
pz
QFRAction
qmmm
QmStat
QN
QNRThr
QNRTHR
QNRThreshold
QRPLIB
quadrupoles
Quant
quinoline
QUINOLINE
QUNE
QZP
Raab
RADIOGROUP
Raffenetti
ragh
Raghavachari
Raimondi
raisebox
Rakowitz
RANGe
rangle
Raos
Raphson
ras
Ras
RAS
rasdet
RasOrb
RASORB
raspek
RASPT
rasread
RASREAD
rasscf
Rasscf
RASScf
RASSCF
rasscfs
rassi
Rassi
RASSi
RASSI
RATIonal
rc
rcc
RCC
RCTFLD
rCX
REAC
REACtion
README
REALTABLE
REALTEXT
REALTIME
RedHat
REDMax
REFCi
REFErence
Reiher
RELA
RELI
Relint
RelInt
RELInt
reoptimize
REORD
REORder
reorganizational
REPOrt
repr
RESTart
returncode
rf
rfield
rfo
RFO
Rfpe
RFPE
rfpert
Rfpert
RFpert
RFPert
RFPErt
RFPERT
RFPErturbation
RFRoot
RFROot
RFROOT
RGB
RGE
RHF
rHid
RHID
rHidden
RHIDden
rhombohedral
RHS
RICD
rightarrow
RIJ
RIJK
RL
rLabel
RLXR
Rlxroot
RlxRoot
RLXRoot
RLXROOT
rmargin
RMAT
Rmax
RMBP
RMDI
RMEA
RMEQ
RMER
Rmin
RMQC
RNORM
ro
RO
rocksalt
ROHF
Roos
ROOTs
rotatebox
ROTAtional
ROVIB
RoVibrational
ROVIbrational
RowH
rowwise
ROWWISE
rp
RPA
rpener
RQUA
RQuad
RQUAd
rrrrrrrr
RSTART
RSTCholesky
RSTCHOLESKY
RSTDiagonal
rster
RstFil
RSTModel
RTRN
Rubio
Ruedenberg
Rumer
RUMER
RUNBINARY
Runfil
RunFil
RUNFIL
runfile
Runfile
RunFile
RUNFILE
Runfiles
runmopac
RUNnnn
RUNOLD
RUNST
Ruzsinszky
rValue
RxxPyy
RXXPyy
RXXPYY
rydberg
Ryde
Rys
RYSRW
Rz
sa
SADDle
SADDLe
Sadlej
Sala
SALA
SAOG
SAOU
sbin
SBOG
SBOU
SBTG
SBTTG
SBTTU
SBTU
SCALe
scalebox
scf
Scf
SCF
SCFdyndumping
ScfOrb
SCFORB
SCFprescreening
schaft
Schimmelpfennig
Schlegel
SCHLEGEL
Schr
SCORr
SCORR
SCRAmble
SCREen
SCRF
scriptsize
SCS
Scuseria
sd
SDAV
Sdci
SDCI
SDEL
SDELete
sDeleted
Sdeleted
SDELeted
SDF
Sdipole
SDIPole
SDIPOLE
SDT
SDTQ
SDVS
sed
Seijo
SEL
SELEct
SELEction
SELEctive
selfconsistent
semicanonical
semiempirical
setbox
setcounter
setuprc
seward
SEWArd
SEWARINP
SFRO
sFrozen
Sfrozen
SFROzen
Sg
SG
SGI's
SHAC
Shanno
sharutils
Shavitt
SHIFt
SHifts
SHIFts
ShowHessian
SHOWHessian
showme
SHOWVALUE
SHSTruc
Siegbahn
Sigmag
SIMPle
SINGEL
SiOrb
SIORB
SIORBnn
Skylaris
sl
slapaf
Slapaf
SlapAf
SlapAF
SLAPAF
SMALl
smallskip
Snijders
socc
SOCoupling
SOCOupling
Sola
solvated
solvation
Solvation
solvatochromic
Solvatochromic
SOLVent
SOProperty
SOPROPerty
sourcelisting
sp
SPARse
spdelete
Spdelete
SPDElete
SpdOrb
SPH
SPHEre
Spinorbit
SpinOrbit
SPINorbit
spinorbital
SPREad
SQR
src
SROInt
SSB
SSEL
Stalring
STARt
STATs
Stdout
STDOut
steric
STHR
sto
STO
Stoll
STOLL
stOrder
STRINGTEXT
STRUC
subitem
submition
Suboptions
Subotnik
subscreens
subsubsection
SumC
SumCH
SumH
SumXCH
SunStudio
Suo
superindex
supermatrix
supermolecule
supersymmetry
Supersymmetry
Supress
Supsym
SUPSym
SUPSYM
Supsymmetry
SUPSymmetry
Svb
svirt
SVWN
sw
swope
SXDAmp
SXDAMP
sym
SYM
SYMA
SYMB
SYMElm
SYMELM
SYMI
SYMJ
Symm
SYMM
symmetrized
SYMMetry
SYMProj
SYMPROJ
SYMT
SYMThreshold
sypersymmetry
sysvar
tableofcontents
TAOG
TAOU
tbl
TBOG
TBOU
TBTG
TBTTG
TBTTU
TBTU
tButadiene
TCA
TDEL
TDELete
TDensity
TDENsity
tdm
TDM
TDMs
TEMPCIV
TempDir
tessera
Tessera
tesserae
tetrahydrofuran
TETRAHYDROFURAN
tex
TEXP
textbf
textit
tga
theindex
Theor
THER
thermochemical
Thermochemical
thermochemistry
Thermochemistry
THERmochemistry
THERmostat
THFACT
thio
thiols
thiophene
Thiophene
ThisDir
thismanual
Thize
THIZe
Thorsteinsson
thr
Thr
THRC
ThrCholesky
THRCholesky
THRCHOLESKY
Thrd
THRD
THRDiagonal
THRDomain
ThrDomains
THRE
THREN
ThrEne
THREshold
THREsholds
ThrF
ThrG
THRG
THRGradient
THRP
THRPairdomain
ThrPairDomains
THRPr
Thrprint
ThrPrint
THRPrint
THRPRINT
ThrR
THRR
THRRotations
thrs
Thrs
THRS
Thrshld
THRShld
THRSHLD
THUNKING
TIGHt
tilte
TITL
TITLe
titlepage
tlf
TlF
TLYP
TMAG
tmargin
tmc
TMD
tmp
TOfile
TOFIle
TOFILE
Tognetti
Tomasi
toolbar
TOTAl
TotDeltaU
Tozer
TraInt
TRAINT
transf
TRANsform
TRANsition
TRANsitions
translationally
transoid
TraOne
TRAONE
TRCNegative
Treutler
tria
TRIPles
Truhlar
TRUSTOPT
tsgeo
TSH
Tsuchiya
tt
TTHR
Turbomole
TWOStep
TWOSTEP
typeindex
TYPEindex
TYPEIndex
TYPEINDEX
TZ
UATM
ud
UDFT
udu
ug
UG
uhf
UHFORB
ulscher
ULTRAFINE
un
UNAORB
uncontracted
Uncontracted
uncontracting
ungerade
uninstall
unix
UNIXF
unmark
unselect
unshifted
unsrt
UNSYM
untar
UORDer
UORDER
Upd
usepackage
UserDen
USERDEN
UserDensity
USERdensity
usr
util
uuencode
valbas
VAlue
varepsilon
variablelist
VARIational
variationally
varphi
VBCI
vbinrasscf
VBUFfer
VBWEights
VBWEIGHTS
VBWFN
vdw
VDZ
VDZP
vec
VECT
VECTors
vel
VELO
VELOcities
VELV
VELVer
VELVER
VELVerlet
VERbose
VERBose
Verlet
Veryazov
VERYbrief
veryclean
VIa
vib
Vib
VIBPlot
VIBPLOT
VIBPLT
VIBR
VIBRational
vibro
vibronic
Vibronic
vibrot
Vibrot
VibRot
VIBROT
VIBWrite
Vibwvs
VibWvs
VIBWVS
Vico
vide
ViewPoint
VIIa
VirAll
virt
VIRT
VIRTual
virtuals
VJAIM
VJAIP
VJTIM
VJTIP
VJTU
Voronoy
VORONOY
Vosko
VQZP
VR
vskip
vspace
vtzp
VTZP
v'v
VV
VWN
Wadt
WADT
Wadt's
Wahlgren
wavefunction
wavefunctions
webpage
Wellnnnn
wer
wexe
weye
wf
wfn
whatnotlist
WHOLe
Widmark
Wilk
Witmer
Wittborn
workdir
WorkDir
WORKDIR
WorkDirName
WorkDirs
wrapfig
WYCKROFF
XALPHA
xbin
xc
XC
XCH
XFCOnstant
XFdInt
Xfield
XField
XFIEld
XFIELD
XFonstant
XFONSTANT
XH
XHole
XHOLe
xlc
xlf
XLIB
XP
XPBE
XVES
xvf
XVIN
XVSO
XXX
xxxx
XXY
XXZ
xy
XY
XYY
xyz
XYZ
xz
XZ
XZZ
Yamanuchi
yattagawa
YBWang
Yibo
Yubin
YX
yy
YY
YYY
YYZ
yz
YZ
YZZ
Zeeman
Zeff
zeroes
ZFS
Zhao
Zhenting
Zhenyi
zJ
ZJPR
Zmat
ZMAT
ZPVE
zspin
zSpin
ZSPIn
ZSPIN
ZT
zyx
ZYX
zz
ZZ
ZZZ
