%!PS-Adobe-3.0 EPSF-3.0
%%Creator: GIMP PostScript file plugin V 1.17 by Peter Kirchgessner
%%Title: dmabn.eps
%%CreationDate: Tue Feb 28 13:27:04 2006
%%DocumentData: Clean7Bit
%%LanguageLevel: 2
%%Pages: 1
%%BoundingBox: 14 14 306 159
%%EndComments
%%BeginProlog
% Use own dictionary to avoid conflicts
10 dict begin
%%EndProlog
%%Page: 1 1
% Translate for offset
14.173228346456694 14.173228346456694 translate
% Translate to begin of first scanline
0 144.71999999999997 translate
290.88 -144.71999999999997 scale
% Image geometry
404 201 8
% Transformation matrix
[ 404 0 0 201 0 0 ]
% Strings to hold RGB-samples per scanline
/rstr 404 string def
/gstr 404 string def
/bstr 404 string def
{currentfile /ASCII85Decode filter /RunLengthDecode filter rstr readstring pop}
{currentfile /ASCII85Decode filter /RunLengthDecode filter gstr readstring pop}
{currentfile /ASCII85Decode filter /RunLengthDecode filter bstr readstring pop}
true 3
%%BeginData:        16346 ASCII Bytes
colorimage
JcC<$JcG-;J,~>
JcC<$JcG-;J,~>
JcC<$JcG-;J,~>
JcC<$JcG-;J,~>
JcC<$JcG-;J,~>
JcC<$JcG-;J,~>
JcC<$JcG-;J,~>
JcC<$JcG-;J,~>
JcC<$JcG-;J,~>
JcC<$JcG-;J,~>
JcC<$JcG-;J,~>
JcC<$JcG-;J,~>
JcG<@rr@WMJcG`LJ,~>
JcG<@rr@WMJcG`LJ,~>
JcG<@rr@WMJcG`LJ,~>
JcG<@rr@WMJcG`LJ,~>
JcG<@rr@WMJcG`LJ,~>
JcG<@rr@WMJcG`LJ,~>
JcG<@rr@WMJcG`LJ,~>
JcG<@rr@WMJcG`LJ,~>
JcG<@rr@WMJcG`LJ,~>
JcG<@rr@WMJcG`LJ,~>
JcG<@rr@WMJcG`LJ,~>
JcG<@rr@WMJcG`LJ,~>
JcG<@rr@WMJcG`LJ,~>
JcG<@rr@WMJcG`LJ,~>
JcG<@rr@WMJcG`LJ,~>
JcG<@rr@WMJcG`LJ,~>
JcG<@rr@WMJcG`LJ,~>
JcG<@rr@WMJcG`LJ,~>
JcG<@rr@WMJcG`LJ,~>
JcG<@rr@WMJcG`LJ,~>
JcG<@rr@WMJcG`LJ,~>
JcG<@rr@WMJcG`LJ,~>
JcG<@rr@WMJcG`LJ,~>
JcG<@rr@WMJcG`LJ,~>
JcG<@rrDioquHcsrr@WMOT0h~>
JcG<@rrDioquHcsrr@WMOT0h~>
JcG<@rrDioquHcsrr@WMOT0h~>
JcG<@rrDcmrW)uurr@WMOT0h~>
JcG<@rrDcmrW)uurr@WMOT0h~>
JcG<@rrDcmrW)uurr@WMOT0h~>
JcG<@rrDcmrW)uurr@WMOT0h~>
JcG<@rrDcmrW)uurr@WMOT0h~>
JcG<@rrDcmrW)uurr@WMOT0h~>
JcG<@rrDcmrVururW%NLOT0h~>
JcG<@rrDcmrVururW%NLOT0h~>
JcG<@rrDcmrVururW%NLOT0h~>
JcG<@rrD`lrr<*"!.k01s*t~>
JcG<@rrD`lrr<*"!.k01s*t~>
JcG<@rrD`lrr<*"!.k01s*t~>
JcG<@rrD`lr;_EKNrOV~>
JcG<@rrD`lr;_EKNrOV~>
JcG<@rrD`lr;_EKNrOV~>
JcG<@rrD`lr;_EKNrOV~>
JcG<@rrD`lr;_EKNrOV~>
JcG<@rrD`lr;_EKNrOV~>
JcG<@rrDZj!!%TMNW4M~>
JcG<@rrDZj!!%TMNW4M~>
JcG<@rrDZj!!%TMNW4M~>
JcG<@rrDZj!!%TMNW4M~>
JcG<@rrDZj!!%TMNW4M~>
JcG<@rrDZj!!%TMNW4M~>
JcG<@rrDZj!!%TMNW4M~>
JcG<@rrDZj!!%TMNW4M~>
JcG<@rrDZj!!%TMNW4M~>
JcG<@rrD`lrr@WMN;nD~>
JcG<@rrD`lrr@WMN;nD~>
JcG<@rrD`lrr@WMN;nD~>
JcG<@rrD`lrr@WMN;nD~>
JcG<@rrD`lrr@WMN;nD~>
JcG<@rrD`lrr@WMN;nD~>
JcG<@rrDiorW%NLMZ82~>
JcG<@rrDiorW%NLMZ82~>
JcG<@rrDiorW%NLMZ82~>
JcG<@rrDiorW%NLMZ82~>
JcG<@rrDiorW%NLMZ82~>
JcG<@rrDiorW%NLMZ82~>
JcG<@rr@WMJcG`LJ,~>
JcG<@rr@WMJcG`LJ,~>
JcG<@rr@WMJcG`LJ,~>
JcG<@rr@WMJcG`LJ,~>
JcG<@rr@WMJcG`LJ,~>
JcG<@rr@WMJcG`LJ,~>
JcG<@rr@WMJcG`LJ,~>
JcG<@rr@WMJcG`LJ,~>
JcG<@rr@WMJcG`LJ,~>
JcG<@rr@WMJcG`LJ,~>
JcG<@rr@WMJcG`LJ,~>
JcG<@rr@WMJcG`LJ,~>
JcG<@rr@WMJcG`LJ,~>
JcG<@rr@WMJcG`LJ,~>
JcG<@rr@WMJcG`LJ,~>
JcG<@rr@WMJcG`LJ,~>
JcG<@rr@WMJcG`LJ,~>
JcG<@rr@WMJcG`LJ,~>
JcG<@rr@WMJcG`LJ,~>
JcG<@rr@WMJcG`LJ,~>
JcG<@rr@WMJcG`LJ,~>
JcG<@rr@WMJcG`LJ,~>
JcG<@rr@WMJcG`LJ,~>
JcG<@rr@WMJcG`LJ,~>
JcG<@rr@WMJcG`LJ,~>
JcG<@rr@WMJcG`LJ,~>
JcG<@rr@WMJcG`LJ,~>
JcG<@rr@WMJcG`LJ,~>
JcG<@rr@WMJcG`LJ,~>
JcG<@rr@WMJcG`LJ,~>
JcG<@rr@WMJcG`LJ,~>
JcG<@rr@WMJcG`LJ,~>
JcG<@rr@WMJcG`LJ,~>
JcG<@rr@WMJcG`LJ,~>
JcG<@rr@WMJcG`LJ,~>
JcG<@rr@WMJcG`LJ,~>
JcG<@rr@WMJcG`LJ,~>
JcG<@rr@WMJcG`LJ,~>
JcG<@rr@WMJcG`LJ,~>
JcG<@rr@WMJcG`LJ,~>
JcG<@rr@WMJcG`LJ,~>
JcG<@rr@WMJcG`LJ,~>
JcG<@rr@WMJcG`LJ,~>
JcG<@rr@WMJcG`LJ,~>
JcG<@rr@WMJcG`LJ,~>
JcG<@rr@WMJcG`LJ,~>
JcG<@rr@WMJcG`LJ,~>
JcG<@rr@WMJcG`LJ,~>
JcG<@rr@WMJcG`LJ,~>
JcG<@rr@WMJcG`LJ,~>
JcG<@rr@WMJcG`LJ,~>
JcG<@rr@WMJcG`LJ,~>
JcG<@rr@WMJcG`LJ,~>
JcG<@rr@WMJcG`LJ,~>
JcG<@rr@WMJcG`LJ,~>
JcG<@rr@WMJcG`LJ,~>
JcG<@rr@WMJcG`LJ,~>
JcG<@rr@WMJcG`LJ,~>
JcG<@rr@WMJcG`LJ,~>
JcG<@rr@WMJcG`LJ,~>
JcG<@rr@WMJcG`LJ,~>
JcG<@rr@WMJcG`LJ,~>
JcG<@rr@WMJcG`LJ,~>
JcG<@rr@WMJcG`LJ,~>
JcG<@rr@WMJcG`LJ,~>
JcG<@rr@WMJcG`LJ,~>
JcG<@rr@WMJcG`LJ,~>
JcG<@rr@WMJcG`LJ,~>
JcG<@rr@WMJcG`LJ,~>
JcG<@rr@WMJcG`LJ,~>
JcG<@rr@WMJcG`LJ,~>
JcG<@rr@WMJcG`LJ,~>
JcG<@rr@WMJcG`LJ,~>
JcG<@rr@WMJcG`LJ,~>
JcG<@rr@WMJcG`LJ,~>
JcG<@rr@WMJcG`LJ,~>
JcG<@rr@WMJcG`LJ,~>
JcG<@rr@WMJcG`LJ,~>
JcG<@rr@WMJcG`LJ,~>
JcG<@rr@WMJcG`LJ,~>
JcG<@rr@WMJcG`LJ,~>
JcG<@rr@WMJcG`LJ,~>
JcG<@rr@WMJcG`LJ,~>
JcG<@rr@WMJcG`LJ,~>
JcG<@rr@WMJcG`LJ,~>
JcG<@rr@WMJcG`LJ,~>
JcG<@rr@WMJcG`LJ,~>
JcG<@rr@WMJcG`LJ,~>
JcG<@rr@WMJcG`LJ,~>
JcG<@rr@WMJcG`LJ,~>
JcG<@rr@WMJcG`LJ,~>
JcG<@rr@WMJcG`LJ,~>
JcG<@rr@WMJcG`LJ,~>
JcG<@rr@WMJcG`LJ,~>
JcG<@rr@WMJcG`LJ,~>
JcG<@rr@WMJcG`LJ,~>
JcG<@rr@WMJcG`LJ,~>
JcG<@rr@WMJcG`LJ,~>
JcG<@rr@WMJcG`LJ,~>
JcG<@rr@WMJcG`LJ,~>
JcG<@rr@WMJcG`LJ,~>
JcG<@rr@WMJcG`LJ,~>
JcG<@rr@WMJcG`LJ,~>
JcG<@rr@WMJcG`LJ,~>
JcG<@rr@WMJcG`LJ,~>
JcG<@rr@WMJcG`LJ,~>
JcG<@rr@WMJcG`LJ,~>
JcG<@rr@WMJcG`LJ,~>
JcG<@rr@WMJcG`LJ,~>
JcG<@rr@WMJcG`LJ,~>
JcG<@rr@WMJcG`LJ,~>
JcG<@rr@WMJcG`LJ,~>
JcG<@rr@WMJcG`LJ,~>
JcG<@rr@WMJcG`LJ,~>
JcG<@rr@WMJcG`LJ,~>
JcG<@rr@WMJcG`LJ,~>
JcG<@rr@WMJcG`LJ,~>
JcG<@rr@WMJcG`LJ,~>
JcG<@rr@WMJcG`LJ,~>
JcG<@rr@WMJcG`LJ,~>
JcG<@rr@WMJcG`LJ,~>
JcG<@rr@WMJcG`LJ,~>
JcG<@rr@WMJcG`LJ,~>
JcG<@rr@WMJcG`LJ,~>
JcG<@rr@WMJcG`LJ,~>
JcG<@rr@WMJcG`LJ,~>
JcG<@rr@WMJcG`LJ,~>
JcG<@rr@WMJcG`LJ,~>
JcG<@rr@WMJcG`LJ,~>
JcG<@rr@WMJcG`LJ,~>
JcG<@rr@WMJcG`LJ,~>
JcG<@rr@WMJcG`LJ,~>
JcG<@rr@WMJcG`LJ,~>
JcG<@rr@WMJcG`LJ,~>
JcG<@rr@WMJcG`LJ,~>
JcG<@rr@WMJcG`LJ,~>
JcG<@rr@WMJcG`LJ,~>
JcG<@rr@WMJcG`LJ,~>
JcG<@rr@WMJcG`LJ,~>
JcG<@rr@WMJcG`LJ,~>
JcG<@rr@WMJcG`LJ,~>
JcG<@rr@WMJcG`LJ,~>
JcG<@rr@WMJcG`LJ,~>
JcG<@rr@WMJcG`LJ,~>
JcC<$JcG-;J,~>
JcC<$JcG-;J,~>
JcC<$JcG-;J,~>
JcC<$JcG-;J,~>
JcC<$JcG-;J,~>
JcC<$JcG-;J,~>
JcC<$JcG-;J,~>
JcC<$JcG-;J,~>
JcC<$JcG-;J,~>
JcC<$JcG-;J,~>
JcC<$JcG-;J,~>
JcC<$JcG-;J,~>
JcC<$JcG-;J,~>
JcC<$JcG-;J,~>
JcC<$JcG-;J,~>
JcC<$JcG-;J,~>
JcC<$JcG-;J,~>
JcC<$JcG-;J,~>
JcC<$JcG-;J,~>
JcC<$JcG-;J,~>
JcC<$JcG-;J,~>
JcC<$JcG-;J,~>
JcC<$JcG-;J,~>
JcC<$JcG-;J,~>
JcC<$JcG-;J,~>
JcC<$JcG-;J,~>
JcC<$JcG-;J,~>
JcC<$JcG-;J,~>
JcC<$JcG-;J,~>
JcC<$JcG-;J,~>
JcC<$JcG-;J,~>
JcC<$JcG-;J,~>
JcC<$JcG-;J,~>
JcC<$JcG-;J,~>
JcC<$JcG-;J,~>
JcC<$JcG-;J,~>
JcC<$JcG-;J,~>
JcC<$JcG-;J,~>
JcC<$JcG-;J,~>
JcC<$JcG-;J,~>
JcC<$JcG-;J,~>
JcC<$JcG-;J,~>
JcC<$JcG-;J,~>
JcC<$JcG-;J,~>
JcC<$JcG-;J,~>
JcC<$JcG-;J,~>
JcC<$JcG-;J,~>
JcC<$JcG-;J,~>
P5i>uJcD8?J,~>
P5i>uJcD8?J,~>
P5i>uJcD8?J,~>
PQ(U__Z'T9JcD8?J,~>
PQ(U__Z'T9JcD8?J,~>
PQ(U__Z'T9JcD8?J,~>
PlC^`_#OE7JcD>AJ,~>
PlC^`_#OE7JcD>AJ,~>
PlC^`_#OE7JcD>AJ,~>
PlC^`_#OE7JcD>AJ,~>
PlC^`_#OE7JcD>AJ,~>
PlC^`_#OE7JcD>AJ,~>
PlC^`^Ae05JcDABJ,~>
PlC^`^Ae05JcDABJ,~>
PlC^`^Ae05JcDABJ,~>
QN-sb^&J'4JcDABJ,~>
QN-sb^&J'4JcDABJ,~>
QN-sb^&J'4JcDABJ,~>
QN-sb^&J'4JcDABJ,~>
QN-sb^&J'4JcDABJ,~>
QN-sb^&J'4JcDABJ,~>
QN-sb]`.s3JcDDCJ,~>
QN-sb]`.s3JcDDCJ,~>
QN-sb]`.s3JcDDCJ,~>
q#C0j!<;rsrr;iq[f6=-p\t3nci="Fq>UEpJcDDCJ,~>
q#C0j!<;rsrr;iq[f6=-p\t3nci="Fq>UEpJcDDCJ,~>
q#C0j!<;rsrr;iq[f6=-p\t3nci="Fq>UEpJcDDCJ,~>
qu?Wqr;ZcsrVlitqYpNq[f?@-p\t3ncN!nEq#C?oJcDJEJ,~>
qu?Wqr;ZcsrVlitqYpNq[f?@-p\t3ncN!nEq#C?oJcDJEJ,~>
qu?Wqr;ZcsrVlitqYpNq[f?@-p\t3ncN!nEq#C?oJcDJEJ,~>
qu?Wqr;ZcsrVlitqYpNq[f?@-p\t3ncN!nEq#C?oJcDJEJ,~>
qu?Wqr;ZcsrVlitqYpNq[f?@-p\t3ncN!nEq#C?oJcDJEJ,~>
qu?Wqr;ZcsrVlitqYpNq[f?@-p\t3ncN!nEq#C?oJcDJEJ,~>
qu6Wro`"mkqYpNq[f?@-q>^HpbPqPBp\t3nJcDMFJ,~>
qu6Wro`"mkqYpNq[f?@-q>^HpbPqPBp\t3nJcDMFJ,~>
qu6Wro`"mkqYpNq[f?@-q>^HpbPqPBp\t3nJcDMFJ,~>
rVultoD\djqYpNq\,QF.p](6nb5VGAq#:<oJcDMFJ,~>
rVultoD\djqYpNq\,QF.p](6nb5VGAq#:<oJcDMFJ,~>
rVultoD\djqYpNq\,QF.p](6nb5VGAq#:<oJcDMFJ,~>
rVultoD\djqYpNq\,QF.p](6nb5VGAq#:<oJcDMFJ,~>
rVultoD\djqYpNq\,QF.p](6nb5VGAq#:<oJcDMFJ,~>
rVultoD\djqYpNq\,QF.p](6nb5VGAq#:<oJcDMFJ,~>
rVultoDeRc\,QF.q#:<oaSu5?p](6nJcDSHJ,~>
rVultoDeRc\,QF.q#:<oaSu5?p](6nJcDSHJ,~>
rVultoDeRc\,QF.q#:<oaSu5?p](6nJcDSHJ,~>
rVultoD\djqYpNqr;Zcs^]+96p\t3na8c/>q>^HpJcDSHJ,~>
rVultoD\djqYpNqr;Zcs^]+96p\t3na8c/>q>^HpJcDSHJ,~>
rVultoD\djqYpNqr;Zcs^]+96p\t3na8c/>q>^HpJcDSHJ,~>
rVuiso`"mkqYpNqrr;uus8W*!_uK`:q#C?o`rH&=p\t3nJcDVIJ,~>
rVuiso`"mkqYpNqrr;uus8W*!_uK`:q#C?o`rH&=p\t3nJcDVIJ,~>
rVuiso`"mkqYpNqrr;uus8W*!_uK`:q#C?o`rH&=p\t3nJcDVIJ,~>
rVuiso`"mkqYpNqrr;uus8W*!_uK`:q#C?o`rH&=p\t3nJcDVIJ,~>
rVuiso`"mkqYpNqrr;uus8W*!_uK`:q#C?o`rH&=p\t3nJcDVIJ,~>
rVuiso`"mkqYpNqrr;uus8W*!_uK`:q#C?o`rH&=p\t3nJcDVIJ,~>
qu?Tpp\t3nqYpNqqZ$Qq_uK`:q>UEp_Z'T9q#:<oJcDVIJ,~>
qu?Tpp\t3nqYpNqqZ$Qq_uK`:q>UEp_Z'T9q#:<oJcDVIJ,~>
qu?Tpp\t3nqYpNqqZ$Qq_uK`:q>UEp_Z'T9q#:<oJcDVIJ,~>
qZ$<j!<;rsr;Z]qrVuis`;]f;p\t3n_Z'T9p\t3nJcDYJJ,~>
qZ$<j!<;rsr;Z]qrVuis`;]f;p\t3n_Z'T9p\t3nJcDYJJ,~>
qZ$<j!<;rsr;Z]qrVuis`;]f;p\t3n_Z'T9p\t3nJcDYJJ,~>
h>dKT`;]f;q#:<o_#OE7q#C?oJcD_LJ,~>
h>dKT`;]f;q#:<o_#OE7q#C?oJcD_LJ,~>
h>dKT`;]f;q#:<o_#OE7q#C?oJcD_LJ,~>
h>dKT`;]f;q#:<o_#OE7q#C?oJcD_LJ,~>
h>dKT`;]f;q#:<o_#OE7q#C?oJcD_LJ,~>
h>dKT`;]f;q#:<o_#OE7q#C?oJcD_LJ,~>
h>dKT`rH&=p\t3n^Ae05q>^HpJcD_LJ,~>
h>dKT`rH&=p\t3n^Ae05q>^HpJcD_LJ,~>
h>dKT`rH&=p\t3n^Ae05q>^HpJcD_LJ,~>
iW&iV`W#o<p](6n^&J'4p\t3nJcDbMJ,~>
iW&iV`W#o<p](6n^&J'4p\t3nJcDbMJ,~>
iW&iV`W#o<p](6n^&J'4p\t3nJcDbMJ,~>
iW&iV`W#o<p](6n^&J'4p\t3nJcDbMJ,~>
iW&iV`W#o<p](6n^&J'4p\t3nJcDbMJ,~>
iW&iV`W#o<p](6n^&J'4p\t3nJcDbMJ,~>
U&P)mq#:<o])Ma1q#:<oJcDbMJ,~>
U&P)mq#:<o])Ma1q#:<oJcDbMJ,~>
U&P)mq#:<o])Ma1q#:<oJcDbMJ,~>
UAk2np\t3n])Ma1p](6nJcDhOJ,~>
UAk2np\t3n])Ma1p](6nJcDhOJ,~>
UAk2np\t3n])Ma1p](6nJcDhOJ,~>
V#UGpq#C?o\GuR/q>^HpJcDhOJ,~>
V#UGpq#C?o\GuR/q>^HpJcDhOJ,~>
V#UGpq#C?o\GuR/q>^HpJcDhOJ,~>
V#UGpq#C?o\GuR/q>^HpJcDhOJ,~>
V#UGpq#C?o\GuR/q>^HpJcDhOJ,~>
V#UGpq#C?o\GuR/q>^HpJcDhOJ,~>
V#UGpq#C?o\GuR/p\t3nJcDkPJ,~>
V#UGpq#C?o\GuR/p\t3nJcDkPJ,~>
V#UGpq#C?o\GuR/p\t3nJcDkPJ,~>
ir8uY`W#o<p\t3n[/U++p\t3nJcDnQJ,~>
ir8uY`W#o<p\t3n[/U++p\t3nJcDnQJ,~>
ir8uY`W#o<p\t3n[/U++p\t3nJcDnQJ,~>
ir8uY`W#o<p\t3n[/U++p\t3nJcDnQJ,~>
ir8uY`W#o<p\t3n[/U++p\t3nJcDnQJ,~>
ir8uY`W#o<p\t3n[/U++p\t3nJcDnQJ,~>
iW&oXa8Z,>p\t3n[/U++p\t3nJcDnQJ,~>
iW&oXa8Z,>p\t3n[/U++p\t3nJcDnQJ,~>
iW&oXa8Z,>p\t3n[/U++p\t3nJcDnQJ,~>
huE]Vb5VGAp\t3nZN'q)q#C?oJcDtSJ,~>
huE]Vb5VGAp\t3nZN'q)q#C?oJcDtSJ,~>
huE]Vb5VGAp\t3nZN'q)q#C?oJcDtSJ,~>
h>dKTcN!nEq#C?oYQ"S&q>^HpJcDtSJ,~>
h>dKTcN!nEq#C?oYQ"S&q>^HpJcDtSJ,~>
h>dKTcN!nEq#C?oYQ"S&q>^HpJcDtSJ,~>
h>dKTcN!nEq#C?oYQ"S&q>^HpJcDtSJ,~>
h>dKTcN!nEq#C?oYQ"S&q>^HpJcDtSJ,~>
h>dKTcN!nEq#C?oYQ"S&q>^HpJcDtSJ,~>
g]%6Rci="Fq#C?oYQ"S&p\t3nJcEpnq>fs`J,~>
g]%6Rci="Fq#C?oYQ"S&p\t3nJcEpnq>fs`J,~>
g]%6Rci="Fq#C?oYQ"S&p\t3nJcEpnq>fs`J,~>
gAh0Qdf0:Ip\t3nXT&8#p\t3nJcF!p!!)utrrDHdJ,~>
gAh0Qdf0:Ip\t3nXT&8#p\t3nJcF!p!!)utrrDHdJ,~>
gAh0Qdf0:Ip\t3nXT&8#p\t3nJcF!p!!)utrrDHdJ,~>
gAh0Qdf0:Ip\t3nXT&8#p\t3nJcF!p!!)utrrDHdJ,~>
gAh0Qdf0:Ip\t3nXT&8#p\t3nJcF!p!!)utrrDHdJ,~>
gAh0Qdf0:Ip\t3nXT&8#p\t3nJcF!p!!)utrrDHdJ,~>
f`1sOeGfLKp\t3nXT&8#p\t3nJcEjl!!)?bJ,~>
f`1sOeGfLKp\t3nXT&8#p\t3nJcEjl!!)?bJ,~>
f`1sOeGfLKp\t3nXT&8#p\t3nJcEjl!!)?bJ,~>
f)PaMf`1sOq#C?oWrN)!q#C?oJcF!prrD?aJ,~>
f)PaMf`1sOq#C?oWrN)!q#C?oJcF!prrD?aJ,~>
f)PaMf`1sOq#C?oWrN)!q#C?oJcF!prrD?aJ,~>
XT&8#p\t3nW;lktq#C?oJcF$q!!)6_J,~>
XT&8#p\t3nW;lktq#C?oJcF$q!!)6_J,~>
XT&8#p\t3nW;lktq#C?oJcF$q!!)6_J,~>
XT&8#p\t3nW;lktq#C?oJcF$q!!)6_J,~>
XT&8#p\t3nW;lktq#C?oJcF$q!!)6_J,~>
XT&8#p\t3nW;lktq#C?oJcF$q!!)6_J,~>
XT&8#p\t3nVZ-Vrp\t3nJcF*sq#Kj_J,~>
XT&8#p\t3nVZ-Vrp\t3nJcF*sq#Kj_J,~>
XT&8#p\t3nVZ-Vrp\t3nJcF*sq#Kj_J,~>
XoAA$p\t3nV#UGpq>UEpJcE.XJ,~>
XoAA$p\t3nV#UGpq>UEpJcE.XJ,~>
XoAA$p\t3nV#UGpq>UEpJcE.XJ,~>
XoAA$p\t3nV#UGpq#C?oJcE4ZJ,~>
XoAA$p\t3nV#UGpq#C?oJcE4ZJ,~>
XoAA$p\t3nV#UGpq#C?oJcE4ZJ,~>
XoAA$p\t3nV#UGpq#C?oJcE4ZJ,~>
XoAA$p\t3nV#UGpq#C?oJcE4ZJ,~>
XoAA$p\t3nV#UGpq#C?oJcE4ZJ,~>
d/X%Equ?Tpmf3:eq#C?oU&P)mp\t3nirAiTrVuWmrr;osqu?TpJcGZJJ,~>
d/X%Equ?Tpmf3:eq#C?oU&P)mp\t3nirAiTrVuWmrr;osqu?TpJcGZJJ,~>
d/X%Equ?Tpmf3:eq#C?oU&P)mp\t3nirAiTrVuWmrr;osqu?TpJcGZJJ,~>
ci<qDqu6WrmJd.dp\t3nTDnlkp\t3njo>;[r;Zcsn,N=dr;ZcsJcGWIJ,~>
ci<qDqu6WrmJd.dp\t3nTDnlkp\t3njo>;[r;Zcsn,N=dr;ZcsJcGWIJ,~>
ci<qDqu6WrmJd.dp\t3nTDnlkp\t3njo>;[r;Zcsn,N=dr;ZcsJcGWIJ,~>
ci<qDqu6WrmJd.dp\t3nTDnlkp\t3njo>;[r;Zcsn,N=dr;ZcsJcGWIJ,~>
ci<qDqu6WrmJd.dp\t3nTDnlkp\t3njo>;[r;Zcsn,N=dr;ZcsJcGWIJ,~>
ci<qDqu6WrmJd.dp\t3nTDnlkp\t3njo>;[r;Zcsn,N=dr;ZcsJcGWIJ,~>
ci="F!WN/srr<&drr<&nrr<%jrr<&nrr<&]rr<&]rrW9$!!)rsrr@WMqu;0~>
ci="F!WN/srr<&drr<&nrr<%jrr<&nrr<&]rr<&]rrW9$!!)rsrr@WMqu;0~>
ci="F!WN/srr<&drr<&nrr<%jrr<&nrr<&]rr<&]rrW9$!!)rsrr@WMqu;0~>
ci="F!<<#urVlitn,NCfp\t3nSc8Zip\t3nkl:Y_jo5>]s8E#ss8N)fs,mB[s*t~>
ci="F!<<#urVlitn,NCfp\t3nSc8Zip\t3nkl:Y_jo5>]s8E#ss8N)fs,mB[s*t~>
ci="F!<<#urVlitn,NCfp\t3nSc8Zip\t3nkl:Y_jo5>]s8E#ss8N)fs,mB[s*t~>
ci="Fs8W&urr2rur;Z<fLB$N=s8W*!oDeRcr;Q`srr;rts8W*!JcGWIJ,~>
ci="Fs8W&urr2rur;Z<fLB$N=s8W*!oDeRcr;Q`srr;rts8W*!JcGWIJ,~>
ci="Fs8W&urr2rur;Z<fLB$N=s8W*!oDeRcr;Q`srr;rts8W*!JcGWIJ,~>
ci="Fs8W&urr2rur;Z<fLB$N=s8W*!oDeRcr;Q`srr;rts8W*!JcGWIJ,~>
ci="Fs8W&urr2rur;Z<fLB$N=s8W*!oDeRcr;Q`srr;rts8W*!JcGWIJ,~>
ci="Fs8W&urr2rur;Z<fLB$N=s8W*!oDeRcr;Q`srr;rts8W*!JcGWIJ,~>
ci="FrVlitrr2run,NCfL]7>Skl:Y_jo5;\rVults8W*!JcGWIJ,~>
ci="FrVlitrr2run,NCfL]7>Skl:Y_jo5;\rVults8W*!JcGWIJ,~>
ci="FrVlitrr2run,NCfL]7>Skl:Y_jo5;\rVults8W*!JcGWIJ,~>
ci="Fr;Zcs!WN/err<%Urr<&^s8E#\rr<&rrrW9$!!%TMqu;0~>
ci="Fr;Zcs!WN/err<%Urr<&^s8E#\rr<&rrrW9$!!%TMqu;0~>
ci="Fr;Zcs!WN/err<%Urr<&^s8E#\rr<&rrrW9$!!%TMqu;0~>
ci="Fr;Zcs!WN/err<%Urr<&^s8E#\rr<&rrrW9$!!%TMqu;0~>
ci="Fr;Zcs!WN/err<%Urr<&^s8E#\rr<&rrrW9$!!%TMqu;0~>
ci="Fr;Zcs!WN/err<%Urr<&^s8E#\rr<&rrrW9$!!%TMqu;0~>
ci="FqZ$Qqm/R(cMuNbWjo>8Zl2L_`qZ$NpJcGWIJ,~>
ci="FqZ$Qqm/R(cMuNbWjo>8Zl2L_`qZ$NpJcGWIJ,~>
ci="FqZ$Qqm/R(cMuNbWjo>8Zl2L_`qZ$NpJcGWIJ,~>
ci<tEqu?Zrm/R(cNW9"Yj8\lSrVuWmr;Zcsqu?WqJcGWIJ,~>
ci<tEqu?Zrm/R(cNW9"Yj8\lSrVuWmr;Zcsqu?WqJcGWIJ,~>
ci<tEqu?Zrm/R(cNW9"Yj8\lSrVuWmr;Zcsqu?WqJcGWIJ,~>
XoAA$NrT+ZJcE4ZJ,~>
XoAA$NrT+ZJcE4ZJ,~>
XoAA$NrT+ZJcE4ZJ,~>
XoAA$NrT+ZJcE4ZJ,~>
XoAA$NrT+ZJcE4ZJ,~>
XoAA$NrT+ZJcE4ZJ,~>
XoAA$O8f1[JcE.XJ,~>
XoAA$O8f1[JcE.XJ,~>
XoAA$O8f1[JcE.XJ,~>
e,KCJg]%6ROT,:\JcE.XJ,~>
e,KCJg]%6ROT,:\JcE.XJ,~>
e,KCJg]%6ROT,:\JcE.XJ,~>
e,KCJg]%6ROT,:\JcE.XJ,~>
e,KCJg]%6ROT,:\JcE.XJ,~>
e,KCJg]%6ROT,:\JcE.XJ,~>
eGfLKg&M'PPlLa`JcE+WJ,~>
eGfLKg&M'PPlLa`JcE+WJ,~>
eGfLKg&M'PPlLa`JcE+WJ,~>
f)PaMf`1sOPlLa`JcE+WJ,~>
f)PaMf`1sOPlLa`JcE+WJ,~>
f)PaMf`1sOPlLa`JcE+WJ,~>
fDbgNeGfLKQN$pbJcE%UJ,~>
fDbgNeGfLKQN$pbJcE%UJ,~>
fDbgNeGfLKQN$pbJcE%UJ,~>
fDbgNeGfLKQN$pbJcE%UJ,~>
fDbgNeGfLKQN$pbJcE%UJ,~>
fDbgNeGfLKQN$pbJcE%UJ,~>
f`(pOe,KCJQi@$cJcE"TJ,~>
f`(pOe,KCJQi@$cJcE"TJ,~>
f`(pOe,KCJQi@$cJcE"TJ,~>
gAh0QdJs4HRK!6eJcE"TJ,~>
gAh0QdJs4HRK!6eJcE"TJ,~>
gAh0QdJs4HRK!6eJcE"TJ,~>
g]%6Rc2RbDSH&ThJcDtSJ,~>
g]%6Rc2RbDSH&ThJcDtSJ,~>
g]%6Rc2RbDSH&ThJcDtSJ,~>
g]%6Rc2RbDSH&ThJcDtSJ,~>
g]%6Rc2RbDSH&ThJcDtSJ,~>
g]%6Rc2RbDSH&ThJcDtSJ,~>
qu?Km!<;ors8Vrrq>^Hpbl7YCSH&ThJcDtSJ,~>
qu?Km!<;ors8Vrrq>^Hpbl7YCSH&ThJcDtSJ,~>
qu?Km!<;ors8Vrrq>^Hpbl7YCSH&ThJcDtSJ,~>
rr;rtr;ZcsrVlitqZ$Qqq>UEpao;>@T)ScjJcDnQJ,~>
rr;rtr;ZcsrVlitqZ$Qqq>UEpao;>@T)ScjJcDnQJ,~>
rr;rtr;ZcsrVlitqZ$Qqq>UEpao;>@T)ScjJcDnQJ,~>
rr;rtr;ZcsrVlitqZ$Qqq>UEpao;>@T)ScjJcDnQJ,~>
rr;rtr;ZcsrVlitqZ$Qqq>UEpao;>@T)ScjJcDnQJ,~>
rr;rtr;ZcsrVlitqZ$Qqq>UEpao;>@T)ScjJcDnQJ,~>
rr2ruo`"mkqZ$QqqYpNqaSu5?T)ScjJcDnQJ,~>
rr2ruo`"mkqZ$QqqYpNqaSu5?T)ScjJcDnQJ,~>
rr2ruo`"mkqZ$QqqYpNqaSu5?T)ScjJcDnQJ,~>
s8N'!oD\djqZ$Qq^]4<6U&P)mJcDkPJ,~>
s8N'!oD\djqZ$Qq^]4<6U&P)mJcDkPJ,~>
s8N'!oD\djqZ$Qq^]4<6U&P)mJcDkPJ,~>
s8N'!oDeOb^&J'4V#UGpJcDhOJ,~>
s8N'!oDeOb^&J'4V#UGpJcDhOJ,~>
s8N'!oDeOb^&J'4V#UGpJcDhOJ,~>
s8N'!oDeOb^&J'4V#UGpJcDhOJ,~>
s8N'!oDeOb^&J'4V#UGpJcDhOJ,~>
s8N'!oDeOb^&J'4V#UGpJcDhOJ,~>
s8N'!oD\djqZ$Qqs8W&u_Z'T9V#UGpJcDhOJ,~>
s8N'!oD\djqZ$Qqs8W&u_Z'T9V#UGpJcDhOJ,~>
s8N'!oD\djqZ$Qqs8W&u_Z'T9V#UGpJcDhOJ,~>
s8W*!o`"mkqZ$Qq!WN0!s8N):rr<%rrr<%Ms/Q*L~>
s8W*!o`"mkqZ$Qq!WN0!s8N):rr<%rrr<%Ms/Q*L~>
s8W*!o`"mkqZ$Qq!WN0!s8N):rr<%rrr<%Ms/Q*L~>
s8W*!o`"mkqZ$Qq!WN0!s8N):rr<%rrr<%Ms/Q*L~>
s8W*!o`"mkqZ$Qq!WN0!s8N):rr<%rrr<%Ms/Q*L~>
s8W*!o`"mkqZ$Qq!WN0!s8N):rr<%rrr<%Ms/Q*L~>
rr;osp\t3nqZ$Qqr;Zcs_uB]:VZ-VrJcDbMJ,~>
rr;osp\t3nqZ$Qqr;Zcs_uB]:VZ-VrJcDbMJ,~>
rr;osp\t3nqZ$Qqr;Zcs_uB]:VZ-VrJcDbMJ,~>
rVuWm!<;orrVufrrr;rt_Z0W9WrN)!JcD_LJ,~>
rVuWm!<;orrVufrrr;rt_Z0W9WrN)!JcD_LJ,~>
rVuWm!<;orrVufrrr;rt_Z0W9WrN)!JcD_LJ,~>
iW&oX_Z0W9WrN)!JcD_LJ,~>
iW&oX_Z0W9WrN)!JcD_LJ,~>
iW&oX_Z0W9WrN)!JcD_LJ,~>
iW&oX_Z0W9WrN)!JcD_LJ,~>
iW&oX_Z0W9WrN)!JcD_LJ,~>
iW&oX_Z0W9WrN)!JcD_LJ,~>
iW&oX_#FB7XT&8#JcDYJJ,~>
iW&oX_#FB7XT&8#JcDYJJ,~>
iW&oX_#FB7XT&8#JcDYJJ,~>
jo>8Z^&S*4Y5\J%JcDYJJ,~>
jo>8Z^&S*4Y5\J%JcDYJJ,~>
jo>8Z^&S*4Y5\J%JcDYJJ,~>
jo>8Z^&S*4Y5\J%JcDYJJ,~>
jo>8Z^&S*4Y5\J%JcDYJJ,~>
jo>8Z^&S*4Y5\J%JcDYJJ,~>
ScA]iYQ"S&JcDVIJ,~>
ScA]iYQ"S&JcDVIJ,~>
ScA]iYQ"S&JcDVIJ,~>
S,WHgZN'q)JcDSHJ,~>
S,WHgZN'q)JcDSHJ,~>
S,WHgZN'q)JcDSHJ,~>
S,WHgZN'q)JcDSHJ,~>
S,WHgZN'q)JcDSHJ,~>
S,WHgZN'q)JcDSHJ,~>
S,WHgZN'q)JcDSHJ,~>
S,WHgZN'q)JcDSHJ,~>
S,WHgZN'q)JcDSHJ,~>
Rf<?f[/U++JcDMFJ,~>
Rf<?f[/U++JcDMFJ,~>
Rf<?f[/U++JcDMFJ,~>
RK*9e[f6=-JcDMFJ,~>
RK*9e[f6=-JcDMFJ,~>
RK*9e[f6=-JcDMFJ,~>
RK*9e\GuR/JcDJEJ,~>
RK*9e\GuR/JcDJEJ,~>
RK*9e\GuR/JcDJEJ,~>
RK*9e\GuR/JcDJEJ,~>
RK*9e\GuR/JcDJEJ,~>
RK*9e\GuR/JcDJEJ,~>
Qi@$c\c;[0JcDJEJ,~>
Qi@$c\c;[0JcDJEJ,~>
Qi@$c\c;[0JcDJEJ,~>
Qi@$cp]&M=p\t3nJcDDCJ,~>
Qi@$cp]&M=p\t3nJcDDCJ,~>
Qi@$cp]&M=p\t3nJcDDCJ,~>
Qi@$cp]&M=p\t3nJcDDCJ,~>
Qi@$cp]&M=p\t3nJcDDCJ,~>
Qi@$cp]&M=p\t3nJcDDCJ,~>
QN-sb^&J'4JcDABJ,~>
QN-sb^&J'4JcDABJ,~>
QN-sb^&J'4JcDABJ,~>
PlC^`^Ae05JcDABJ,~>
PlC^`^Ae05JcDABJ,~>
PlC^`^Ae05JcDABJ,~>
PlC^`_#OE7JcD>AJ,~>
PlC^`_#OE7JcD>AJ,~>
PlC^`_#OE7JcD>AJ,~>
PlC^`_#OE7JcD>AJ,~>
PlC^`_#OE7JcD>AJ,~>
PlC^`_#OE7JcD>AJ,~>
PQ(U__>jN8JcD>AJ,~>
PQ(U__>jN8JcD>AJ,~>
PQ(U__>jN8JcD>AJ,~>
PQ(U__Z'T9JcD8?J,~>
PQ(U__Z'T9JcD8?J,~>
PQ(U__Z'T9JcD8?J,~>
PQ(U__Z'T9JcD8?J,~>
PQ(U__Z'T9JcD8?J,~>
PQ(U__Z'T9JcD8?J,~>
P5iB!JcD5>J,~>
P5iB!JcD5>J,~>
P5iB!JcD5>J,~>
JcC<$JcG-;J,~>
JcC<$JcG-;J,~>
JcC<$JcG-;J,~>
JcC<$JcG-;J,~>
JcC<$JcG-;J,~>
JcC<$JcG-;J,~>
JcC<$JcG-;J,~>
JcC<$JcG-;J,~>
JcC<$JcG-;J,~>
%%EndData
showpage
%%Trailer
end
%%EOF
